{
    "query": {
        "bool": {
            "must": [
                null,
                {
                    "match": {
                        "name": "Audi"
                    }
                },
                {
                    "match": {
                        "isAuto": "true"
                    }
                },
                {
                    "match": {
                        "seats": "5"
                    }
                },
                {
                    "range": {
                        "price": {
                            "gte": 0,
                            "lte": 100000
                        }
                    }
                }
            ]
        }
    }
}