
{
    "name": "豐田ToyotaHiace200",
    "manufactured_Year": 2013,
    "isAtuto": true,
    "seat": 5,
    "engine_Vol": "3000",
    "additionalInfo": "13年無死期 歐盟5 11萬8公里 兩隻6×9兩隻低音兩隻後級連音箱 中門尾門電索 Te37鈴連toyo h20。hks 放氣嘩佬。Ap迫力全套 日本正廠頭冗 牌費到7月 機器正常 冷氣夠涼",
    "website": "car1.hk",
    "picture1": "https://tradings.car1.hk/images/2019/06/1559367281-9651_01.jpg",
    "picture2": "https://tradings.car1.hk/images/2019/06/1559367281-9130_01.jpg",
    "picture3": "https://tradings.car1.hk/images/2019/06/1559367282-9461_01.jpg",
    "picture4": "https://tradings.car1.hk/images/2019/06/1559367282-5383_01.jpg",
    "price": "$250,000",
    "color": "黑色",
    "km": "118,776",
    "brand": "豐田",
    "isSold": false,
    "url": "https://tradings.car1.hk/item/7004/Toyota-Hiace-200-2013/"
  }


  // "manufactured_Year" -> Year
  "isAtuto" -> Auto
  // "engine_Vol" ->Volume  and need parseInt
  // "additionalInfo" -> Detail
  // "website" -> websiteName

  // website(foreign) - need full website name ie. https://car1.hk
  picture(foreign) - all pics will be put in "picture" table
  // price - parseInt
  // color - please drop
  // km - parseInt
  // brand(foreign) - change to English
  // updateDate - need updateDate in dataSet
  // contactName - get if possible 
  // contactNo - get if possible

  
  